Version 4
SHEET 1 880 680
WIRE 560 -208 -112 -208
WIRE -112 -176 -112 -208
WIRE -336 -128 -368 -128
WIRE 48 -112 -80 -112
WIRE 416 -112 48 -112
WIRE 464 -112 416 -112
WIRE 560 -112 560 -208
WIRE 560 -112 528 -112
WIRE -336 -96 -368 -96
WIRE -48 -80 -80 -80
WIRE 48 -80 48 -112
WIRE -48 -48 -48 -80
WIRE -208 -32 -208 -48
WIRE 48 32 48 0
WIRE 80 32 48 32
WIRE 176 32 144 32
WIRE 416 112 416 -112
WIRE 448 112 416 112
WIRE 48 128 48 32
WIRE 80 128 48 128
WIRE 560 128 560 -112
WIRE 560 128 512 128
WIRE 624 128 560 128
WIRE 640 128 624 128
WIRE 176 144 176 32
WIRE 176 144 144 144
WIRE 240 144 176 144
WIRE 384 144 320 144
WIRE 448 144 384 144
WIRE 80 160 48 160
WIRE 384 176 384 144
WIRE 480 176 480 160
WIRE 624 176 624 128
WIRE 48 192 48 160
WIRE 112 192 112 176
WIRE 624 272 624 256
WIRE 384 288 384 256
WIRE -304 320 -304 304
WIRE -304 320 -368 320
WIRE -368 336 -368 320
WIRE -304 336 -304 320
FLAG 48 192 0
FLAG 384 288 0
FLAG 480 176 -Vs
FLAG 480 96 +Vs
FLAG 640 128 out
IOPIN 640 128 Out
FLAG 112 112 +Vs
FLAG 112 192 -Vs
FLAG -304 416 -Vs
FLAG -304 224 +Vs
FLAG -368 336 0
FLAG -192 400 0
FLAG -192 320 in
FLAG -368 -128 in
IOPIN -368 -128 In
FLAG -208 -32 -Vs
FLAG -368 -96 D[7:0]
FLAG -240 592 -Vs
FLAG -144 592 -Vs
FLAG -48 592 -Vs
FLAG 48 592 -Vs
FLAG 144 592 -Vs
FLAG 240 592 -Vs
FLAG 336 592 -Vs
FLAG 432 592 -Vs
FLAG -240 512 D[7]
FLAG -144 512 D[6]
FLAG -48 512 D[5]
FLAG 48 512 D[4]
FLAG 144 512 D[3]
FLAG 240 512 D[2]
FLAG 336 512 D[1]
FLAG 432 512 D[0]
FLAG -48 -48 0
FLAG 624 272 0
SYMBOL Opamps\\LTC6247 480 128 R0
SYMATTR InstName U2
SYMBOL Opamps\\LTC6244HV 112 144 R0
SYMATTR InstName U1
SYMBOL res 336 128 R90
WINDOW 0 0 56 VBottom 2
WINDOW 3 32 56 VTop 2
SYMATTR InstName R1
SYMATTR Value 4.7k
SYMBOL res 368 160 R0
SYMATTR InstName R2
SYMATTR Value 200
SYMBOL voltage -304 208 R0
SYMATTR InstName V1
SYMATTR Value 5
SYMBOL voltage -304 320 R0
SYMATTR InstName V2
SYMATTR Value 5
SYMBOL cap 144 16 R90
WINDOW 0 0 32 VBottom 2
WINDOW 3 32 32 VTop 2
SYMATTR InstName C1
SYMATTR Value 300p
SYMBOL voltage -192 304 R0
WINDOW 123 24 120 Left 2
WINDOW 39 0 0 Left 0
SYMATTR InstName V3
SYMATTR Value PULSE(0 4.5 10u 10n 10n 4u 2u 1)
SYMATTR Value2 AC 1
SYMBOL cap 528 -128 R90
WINDOW 0 0 32 VBottom 2
WINDOW 3 32 32 VTop 2
SYMATTR InstName C2
SYMATTR Value 2p
SYMBOL AD5426 -208 -112 R0
SYMATTR InstName X1
SYMBOL voltage -240 496 R0
SYMATTR InstName V4
SYMATTR Value {D7}
SYMBOL voltage -144 496 R0
SYMATTR InstName V5
SYMATTR Value {D6}
SYMBOL voltage -48 496 R0
SYMATTR InstName V6
SYMATTR Value {D5}
SYMBOL voltage 48 496 R0
SYMATTR InstName V7
SYMATTR Value {D4}
SYMBOL voltage 144 496 R0
SYMATTR InstName V8
SYMATTR Value {D3}
SYMBOL voltage 240 496 R0
SYMATTR InstName V9
SYMATTR Value {D2}
SYMBOL voltage 336 496 R0
SYMATTR InstName V10
SYMATTR Value {D1}
SYMBOL voltage 432 496 R0
SYMATTR InstName V11
SYMATTR Value {D0}
SYMBOL res 608 160 R0
SYMATTR InstName R4
SYMATTR Value 2k
SYMBOL res 32 -96 R0
SYMATTR InstName R3
SYMATTR Value 1k
TEXT -52 310 Left 2 !;.tran 25u\n.ac dec 10 1 100Meg
TEXT -464 424 Left 2 !.param R=10k
TEXT 624 344 Left 2 !.step param D7 list 0 1\n;.step param D6 list 0 1\n;.step param D5 list 0 1\n;.param D7=1\n.param D6=1\n.param D5=1\n.param D4=1\n.param D3=1\n.param D2=1\n.param D1=1\n.param D0=1
