Version 4
SHEET 1 880 680
WIRE 192 96 160 96
WIRE 304 96 272 96
WIRE 416 96 384 96
WIRE 160 208 160 96
WIRE 256 208 160 208
WIRE 416 208 416 96
WIRE 416 208 320 208
WIRE 416 240 416 208
FLAG 160 208 1
FLAG 416 240 0
SYMBOL res 288 80 R90
WINDOW 0 0 56 VBottom 2
WINDOW 3 32 56 VTop 2
SYMATTR InstName R1
SYMATTR Value 2
SYMBOL cap 320 192 R90
WINDOW 0 0 32 VBottom 2
WINDOW 3 32 32 VTop 2
SYMATTR InstName C1
SYMATTR Value 180p
SYMBOL res 400 80 R90
WINDOW 0 0 56 VBottom 2
WINDOW 3 32 56 VTop 2
SYMATTR InstName R2
SYMATTR Value 51
TEXT 328 288 Left 2 !.ic V(1)=5
TEXT 168 288 Left 2 !.tran 200n
