Version 4
SHEET 1 2400 1208
WIRE 1136 -416 928 -416
WIRE 1568 -416 1216 -416
WIRE 1600 -416 1568 -416
WIRE 1712 -416 1664 -416
WIRE 1264 -336 1184 -336
WIRE 1424 -336 1264 -336
WIRE 1568 -336 1568 -416
WIRE 1600 -336 1568 -336
WIRE 1712 -336 1712 -416
WIRE 1712 -336 1680 -336
WIRE 1264 -320 1264 -336
WIRE 1184 -304 1184 -336
WIRE 512 -256 480 -256
WIRE 800 -256 736 -256
WIRE 928 -256 928 -416
WIRE 928 -256 800 -256
WIRE 960 -256 928 -256
WIRE 800 -240 800 -256
WIRE 1264 -240 1264 -256
WIRE 1264 -240 1216 -240
WIRE 1312 -240 1264 -240
WIRE 960 -224 928 -224
WIRE 1424 -224 1424 -336
WIRE 1424 -224 1376 -224
WIRE 1456 -224 1424 -224
WIRE 1568 -224 1568 -336
WIRE 1568 -224 1536 -224
WIRE 1600 -224 1568 -224
WIRE 1264 -208 1216 -208
WIRE 1312 -208 1264 -208
WIRE 1712 -208 1712 -336
WIRE 1712 -208 1664 -208
WIRE 1744 -208 1712 -208
WIRE 1600 -192 1568 -192
WIRE 1344 -176 1344 -192
WIRE 624 -160 624 -192
WIRE 800 -160 800 -176
WIRE 1568 -160 1568 -192
WIRE 1632 -160 1632 -176
WIRE 1088 -144 1088 -176
WIRE 1264 -144 1264 -208
WIRE 336 -48 288 -48
WIRE 448 -48 400 -48
WIRE 160 32 128 32
WIRE 288 32 288 -48
WIRE 288 32 240 32
WIRE 336 32 288 32
WIRE 448 32 448 -48
WIRE 448 32 416 32
WIRE 928 64 832 64
WIRE 1088 64 928 64
WIRE 1296 64 1264 64
WIRE 1392 64 1360 64
WIRE 1552 64 1424 64
WIRE 928 80 928 64
WIRE 832 96 832 64
WIRE 2080 112 2080 96
WIRE 288 128 288 32
WIRE 320 128 288 128
WIRE 448 144 448 32
WIRE 448 144 384 144
WIRE 480 144 448 144
WIRE 608 144 480 144
WIRE 1760 144 1728 144
WIRE 320 160 288 160
WIRE 928 160 928 144
WIRE 928 160 864 160
WIRE 992 160 928 160
WIRE 1424 160 1424 64
WIRE 1456 160 1424 160
WIRE 1888 160 1824 160
WIRE 2000 160 1888 160
WIRE 2192 160 2160 160
WIRE 608 176 576 176
WIRE 1088 176 1088 64
WIRE 1088 176 1056 176
WIRE 1120 176 1088 176
WIRE 1152 176 1120 176
WIRE 1264 176 1264 64
WIRE 1264 176 1232 176
WIRE 1296 176 1264 176
WIRE 1552 176 1552 64
WIRE 1552 176 1520 176
WIRE 1584 176 1552 176
WIRE 1760 176 1584 176
WIRE 352 192 352 176
WIRE 928 192 864 192
WIRE 992 192 928 192
WIRE 1392 192 1392 64
WIRE 1392 192 1360 192
WIRE 1456 192 1392 192
WIRE 1296 208 1264 208
WIRE 1728 208 1728 144
WIRE 1776 208 1776 192
WIRE 1792 208 1792 192
WIRE 1792 208 1776 208
WIRE 1808 208 1808 192
WIRE 1808 208 1792 208
WIRE 2000 208 1968 208
WIRE 2192 208 2176 208
WIRE 1024 224 1024 208
WIRE 1488 224 1488 208
WIRE 1776 224 1776 208
WIRE 736 240 736 224
WIRE 1264 240 1264 208
WIRE 1328 240 1328 224
WIRE 160 256 128 256
WIRE 288 256 288 160
WIRE 288 256 240 256
WIRE 336 256 288 256
WIRE 448 256 416 256
WIRE 928 256 928 192
WIRE 2000 272 2000 256
WIRE 2080 272 2080 256
WIRE 448 288 448 256
WIRE 512 640 512 624
WIRE 512 640 448 640
WIRE 512 656 512 640
WIRE 448 672 448 640
FLAG 448 672 0
FLAG 512 736 -Vs
FLAG 512 544 +Vs
FLAG 352 112 +Vs
FLAG 352 192 -Vs
FLAG 1184 592 in
FLAG 1184 672 0
FLAG 1264 240 0
FLAG 1328 240 -Vs
FLAG 1328 160 +Vs
FLAG 1584 176 int
FLAG 480 144 diff
FLAG 448 288 0
FLAG 1728 208 0
FLAG 1792 128 +Vs
FLAG 624 592 3V3
FLAG 1888 160 comp
FLAG 1776 224 -Vs
FLAG 1808 128 3V3
FLAG 624 672 -Vs
FLAG 784 592 clk
FLAG 784 672 -Vs
FLAG 1968 208 clk
FLAG 2000 272 -Vs
FLAG 2080 272 -Vs
FLAG 2080 96 -Vs
FLAG 2192 208 sync
FLAG 1024 224 -Vs
FLAG 928 256 0
FLAG 1024 144 +Vs
FLAG 1120 176 dac
FLAG 1488 224 -Vs
FLAG 1488 144 +Vs
FLAG 128 256 in
IOPIN 128 256 In
FLAG 576 176 SLOPE
FLAG 1376 672 0
FLAG 1376 592 SLOPE
FLAG 736 240 0
FLAG 1264 -144 0
FLAG 928 -224 REFD
FLAG 1088 -144 0
FLAG 1632 -160 -Vs
FLAG 1568 -160 0
FLAG 1344 -176 -Vs
FLAG 1632 -240 +Vs
FLAG 1344 -256 +Vs
FLAG 1504 672 0
FLAG 1504 592 REFD
FLAG 624 -160 0
FLAG 480 -256 +Vs
FLAG 800 -160 0
FLAG 128 32 ref
FLAG 1744 -208 ref
FLAG 1264 176 n
SYMBOL voltage 512 528 R0
WINDOW 123 0 0 Left 0
WINDOW 39 0 0 Left 0
SYMATTR InstName V1
SYMATTR Value 5
SYMBOL voltage 512 640 R0
SYMATTR InstName V2
SYMATTR Value 5
SYMBOL voltage 1184 576 R0
WINDOW 123 0 0 Left 0
WINDOW 39 0 0 Left 0
SYMATTR InstName V3
SYMATTR Value SINE(0 1 100k)
SYMBOL cap 1360 48 R90
WINDOW 0 0 32 VBottom 2
WINDOW 3 32 32 VTop 2
SYMATTR InstName C1
SYMATTR Value 180p
SYMBOL res 256 16 R90
WINDOW 0 0 56 VBottom 2
WINDOW 3 32 56 VTop 2
SYMATTR InstName R4
SYMATTR Value {Rd}
SYMBOL res 432 16 R90
WINDOW 0 0 56 VBottom 2
WINDOW 3 32 56 VTop 2
SYMATTR InstName R5
SYMATTR Value {Rd}
SYMBOL res 256 240 R90
WINDOW 0 0 56 VBottom 2
WINDOW 3 32 56 VTop 2
SYMATTR InstName R6
SYMATTR Value {Rd}
SYMBOL res 432 240 R90
WINDOW 0 0 56 VBottom 2
WINDOW 3 32 56 VTop 2
SYMATTR InstName R7
SYMATTR Value {Rd}
SYMBOL voltage 624 576 R0
SYMATTR InstName V5
SYMATTR Value 3.3
SYMBOL Comparators\\LT1719 1792 96 R0
SYMATTR InstName U5
SYMBOL voltage 784 576 R0
WINDOW 123 0 0 Left 0
WINDOW 39 0 0 Left 0
SYMATTR InstName V4
SYMATTR Value PULSE(0 3.3 0 1n 10n 20n 10n)
SYMBOL Digital\\dflop 2080 112 R0
SYMATTR InstName A1
SYMATTR SpiceLine Vhigh=3.3 Trise=1n Tfall=1n
SYMBOL cap 912 80 R0
SYMATTR InstName C2
SYMATTR Value 4p
SYMBOL res 1248 160 R90
WINDOW 0 0 56 VBottom 2
WINDOW 3 32 56 VTop 2
SYMATTR InstName R1
SYMATTR Value 2k
SYMBOL MDAC8 736 160 R0
SYMATTR InstName X1
SYMBOL voltage 1376 576 R0
WINDOW 123 0 0 Left 0
WINDOW 39 0 0 Left 0
SYMATTR InstName V8
SYMATTR Value 255
SYMBOL MDAC8 1088 -240 R0
SYMATTR InstName X2
SYMBOL res 1232 -432 R90
WINDOW 0 0 56 VBottom 2
WINDOW 3 32 56 VTop 2
SYMATTR InstName R3
SYMATTR Value 20k
SYMBOL res 1696 -352 R90
WINDOW 0 0 56 VBottom 2
WINDOW 3 32 56 VTop 2
SYMATTR InstName R8
SYMATTR Value 20k
SYMBOL res 1552 -240 R90
WINDOW 0 0 56 VBottom 2
WINDOW 3 32 56 VTop 2
SYMATTR InstName R9
SYMATTR Value 10k
SYMBOL cap 1248 -320 R0
SYMATTR InstName C5
SYMATTR Value 4p
SYMBOL bv 1504 576 R0
SYMATTR InstName B1
SYMATTR Value V=if(V(sync)>-3.3, 64, 192)
SYMBOL cap 784 -240 R0
SYMATTR InstName C6
SYMATTR Value 47n
SYMBOL cap 1664 -432 R90
WINDOW 0 0 32 VBottom 2
WINDOW 3 32 32 VTop 2
SYMATTR InstName C4
SYMATTR Value 3.3p
SYMBOL References\\LT6654-4.096 624 -256 R0
SYMATTR InstName U9
SYMBOL Opamps\\LTC6244HV 1328 192 R0
SYMATTR InstName U3
SYMBOL Opamps\\LTC6244HV 1488 176 R0
SYMATTR InstName U4
SYMBOL Opamps\\LTC6244HV 1024 176 R0
SYMATTR InstName U2
SYMBOL Opamps\\LTC6244HV 1344 -224 R0
SYMATTR InstName U6
SYMBOL Opamps\\LTC6244HV 1632 -208 R0
SYMATTR InstName U7
SYMBOL Opamps\\LTC6244HV 352 144 R0
SYMATTR InstName U1
SYMBOL cap 400 -64 R90
WINDOW 0 0 32 VBottom 2
WINDOW 3 32 32 VTop 2
SYMATTR InstName C3
SYMATTR Value 36p
TEXT 328 392 Left 2 !.tran 50u
TEXT 496 368 Left 2 !.ic V(int)=0 V(n)=0 V(diff)=0 V(dac)=0\n.param Rd=1k\n;.step param Rd list 1k 2k
